{
	"name": "stairways",
	"title": "Stairways (Teleporter)",
	"description": "Easily create stairways (teleporter) within one scene or between two scenes.",
	"version": "0.7.4",
	"minimumCoreVersion": "0.8.6",
	"compatibleCoreVersion": "0.8.8",
	"authors": [
		{
			"name": "Simon Wörner",
			"email": "git@simon-woerner.de",
			"discord": "SWW13#0799"
		}
	],
	"socket": true,
	"esmodules": [
		"src/main.js"
	],
	"languages": [
		{
			"lang": "en",
			"name": "English",
			"path": "lang/en.json"
		},
		{
			"lang": "es",
            "name": "Español",
            "path": "lang/es.json"
		}
	],
	"url": "https://gitlab.com/SWW13/foundryvtt-stairways",
	"manifest": "https://gitlab.com/SWW13/foundryvtt-stairways/-/raw/development/module.json",
	"download": "https://gitlab.com/SWW13/foundryvtt-stairways/-/archive/v0.7.4/foundryvtt-stairways-v0.7.4.zip",
	"readme": "https://gitlab.com/SWW13/foundryvtt-stairways/blob/development/README.md",
	"changelog": "https://gitlab.com/SWW13/foundryvtt-stairways/blob/development/CHANGELOG.md",
	"bugs": "https://gitlab.com/SWW13/foundryvtt-stairways/issues",
	"allowBugReporter": true
}
